Getting started with happign
…
After choosing the API key containing our resource, you can access all layer names with get_layers_metadata().

Rq :

This function can be a bit slow because it connects directly to the website so that the information is up to date.

The returned data correspond to the intersection with the shape bbox. This is highlighted by the “all” figure below

apikey <- get_apikeys()[1]
get_layers_metadata(apikey = apikey, data_type = "wfs")
#> # A tibble: 36 x 4
#>    keywords               name                              abstract  defaultcrs
#>    <chr>                  <chr>                             <chr>     <chr>     
#>  1 Unités administratives ADMINEXPRESS-COG-CARTO.LATEST:ar~ édition ~ EPSG::4326
#>  2 Unités administratives ADMINEXPRESS-COG-CARTO.LATEST:ar~ édition ~ EPSG::4326
#>  3 Unités administratives ADMINEXPRESS-COG-CARTO.LATEST:ca~ édition ~ EPSG::4326
#>  4 Unités administratives ADMINEXPRESS-COG-CARTO.LATEST:ch~ édition ~ EPSG::4326
#>  5 Unités administratives ADMINEXPRESS-COG-CARTO.LATEST:ch~ édition ~ EPSG::4326
#>  6 Unités administratives ADMINEXPRESS-COG-CARTO.LATEST:ch~ édition ~ EPSG::4326
#>  7 Unités administratives ADMINEXPRESS-COG-CARTO.LATEST:co~ édition ~ EPSG::4326
#>  8 Unités administratives ADMINEXPRESS-COG-CARTO.LATEST:co~ édition ~ EPSG::4326
#>  9 Unités administratives ADMINEXPRESS-COG-CARTO.LATEST:co~ édition ~ EPSG::4326
#> 10 Unités administratives ADMINEXPRESS-COG-CARTO.LATEST:de~ édition ~ EPSG::4326
#> # ... with 26 more rows
…
